simulation/qsim/ula.msim.vcd
$comment
	File created using the following command:
		vcd file ula.msim.vcd -direction
$end
$date
	Mon Jan 10 13:28:11 2022
$end
$version
	ModelSim Version 2020.1
$end
$timescale
	1ps
$end

$scope module ula_vhd_vec_tst $end
$var wire 1 ! carry0 $end
$var wire 1 " flag_carry $end
$var wire 1 # flag_negativo $end
$var wire 1 $ flag_overflow $end
$var wire 1 % flag_zero $end
$var wire 1 & num1 [3] $end
$var wire 1 ' num1 [2] $end
$var wire 1 ( num1 [1] $end
$var wire 1 ) num1 [0] $end
$var wire 1 * num2 [3] $end
$var wire 1 + num2 [2] $end
$var wire 1 , num2 [1] $end
$var wire 1 - num2 [0] $end
$var wire 1 . saida [3] $end
$var wire 1 / saida [2] $end
$var wire 1 0 saida [1] $end
$var wire 1 1 saida [0] $end
$var wire 1 2 selecao1 $end
$var wire 1 3 selecao2 $end
$var wire 1 4 selecao3 $end

$scope module i1 $end
$var wire 1 5 gnd $end
$var wire 1 6 vcc $end
$var wire 1 7 unknown $end
$var wire 1 8 devoe $end
$var wire 1 9 devclrn $end
$var wire 1 : devpor $end
$var wire 1 ; ww_devoe $end
$var wire 1 < ww_devclrn $end
$var wire 1 = ww_devpor $end
$var wire 1 > ww_selecao1 $end
$var wire 1 ? ww_selecao2 $end
$var wire 1 @ ww_selecao3 $end
$var wire 1 A ww_num1 [3] $end
$var wire 1 B ww_num1 [2] $end
$var wire 1 C ww_num1 [1] $end
$var wire 1 D ww_num1 [0] $end
$var wire 1 E ww_num2 [3] $end
$var wire 1 F ww_num2 [2] $end
$var wire 1 G ww_num2 [1] $end
$var wire 1 H ww_num2 [0] $end
$var wire 1 I ww_carry0 $end
$var wire 1 J ww_saida [3] $end
$var wire 1 K ww_saida [2] $end
$var wire 1 L ww_saida [1] $end
$var wire 1 M ww_saida [0] $end
$var wire 1 N ww_flag_carry $end
$var wire 1 O ww_flag_zero $end
$var wire 1 P ww_flag_overflow $end
$var wire 1 Q ww_flag_negativo $end
$var wire 1 R \saida[0]~output_o\ $end
$var wire 1 S \saida[1]~output_o\ $end
$var wire 1 T \saida[2]~output_o\ $end
$var wire 1 U \saida[3]~output_o\ $end
$var wire 1 V \flag_carry~output_o\ $end
$var wire 1 W \flag_zero~output_o\ $end
$var wire 1 X \flag_overflow~output_o\ $end
$var wire 1 Y \flag_negativo~output_o\ $end
$var wire 1 Z \selecao3~input_o\ $end
$var wire 1 [ \selecao2~input_o\ $end
$var wire 1 \ \carry0~input_o\ $end
$var wire 1 ] \selecao1~input_o\ $end
$var wire 1 ^ \num1[0]~input_o\ $end
$var wire 1 _ \Mux3~0_combout\ $end
$var wire 1 ` \num2[0]~input_o\ $end
$var wire 1 a \Mux3~1_combout\ $end
$var wire 1 b \Mux3~2_combout\ $end
$var wire 1 c \num2[1]~input_o\ $end
$var wire 1 d \num1[1]~input_o\ $end
$var wire 1 e \compara1|saidaComparador~1_combout\ $end
$var wire 1 f \num2[3]~input_o\ $end
$var wire 1 g \num2[2]~input_o\ $end
$var wire 1 h \num1[3]~input_o\ $end
$var wire 1 i \num1[2]~input_o\ $end
$var wire 1 j \compara1|saidaComparador~0_combout\ $end
$var wire 1 k \compara1|saidaComparador~combout\ $end
$var wire 1 l \comp0|s0|saidaComponente~combout\ $end
$var wire 1 m \comp0|s2|cout~0_combout\ $end
$var wire 1 n \sub0|saidaComponente~combout\ $end
$var wire 1 o \Mux3~3_combout\ $end
$var wire 1 p \Mux3~4_combout\ $end
$var wire 1 q \Mux3~5_combout\ $end
$var wire 1 r \comp1|s1|saidaComponente~combout\ $end
$var wire 1 s \Mux2~4_combout\ $end
$var wire 1 t \Mux2~5_combout\ $end
$var wire 1 u \sub0|cout~0_combout\ $end
$var wire 1 v \comp0|s0|cout~combout\ $end
$var wire 1 w \Mux2~9_combout\ $end
$var wire 1 x \soma0|cout~0_combout\ $end
$var wire 1 y \Mux2~6_combout\ $end
$var wire 1 z \Mux2~7_combout\ $end
$var wire 1 { \Mux2~8_combout\ $end
$var wire 1 | \comp0|s1|cout~0_combout\ $end
$var wire 1 } \sub1|cout~0_combout\ $end
$var wire 1 ~ \sub2|saidaComponente~0_combout\ $end
$var wire 1 !! \i1|cout~0_combout\ $end
$var wire 1 "! \Mux1~1_combout\ $end
$var wire 1 #! \Mux1~2_combout\ $end
$var wire 1 $! \Mux1~3_combout\ $end
$var wire 1 %! \comp1|s2|saidaComponente~combout\ $end
$var wire 1 &! \Mux1~0_combout\ $end
$var wire 1 '! \Mux1~4_combout\ $end
$var wire 1 (! \comp1|s2|cout~0_combout\ $end
$var wire 1 )! \Mux0~5_combout\ $end
$var wire 1 *! \Mux0~4_combout\ $end
$var wire 1 +! \Mux0~1_combout\ $end
$var wire 1 ,! \soma1|cout~0_combout\ $end
$var wire 1 -! \soma2|cout~0_combout\ $end
$var wire 1 .! \sub2|cout~0_combout\ $end
$var wire 1 /! \Mux0~0_combout\ $end
$var wire 1 0! \Mux0~2_combout\ $end
$var wire 1 1! \Mux0~3_combout\ $end
$var wire 1 2! \Mux0~6_combout\ $end
$var wire 1 3! \Mux4~0_combout\ $end
$var wire 1 4! \Mux4~1_combout\ $end
$var wire 1 5! \Mux4~3_combout\ $end
$var wire 1 6! \Mux4~2_combout\ $end
$var wire 1 7! \Mux4~4_combout\ $end
$var wire 1 8! \Mux4~5_combout\ $end
$var wire 1 9! \Mux5~0_combout\ $end
$var wire 1 :! \carry_out~combout\ $end
$var wire 1 ;! \Equal0~0_combout\ $end
$var wire 1 <! \flag_overflow~0_combout\ $end
$var wire 1 =! \ALT_INV_flag_overflow~0_combout\ $end
$upscope $end
$upscope $end
$enddefinitions $end
#0
$dumpvars
0!
1"
0#
1$
0%
02
03
14
05
16
x7
18
19
1:
1;
1<
1=
0>
0?
1@
0I
1N
0O
1P
0Q
1R
1S
0T
0U
1V
0W
1X
0Y
1Z
0[
0\
0]
1^
0_
0`
1a
0b
0c
1d
1e
1f
1g
1h
1i
0j
1k
0l
0m
1n
1o
1p
1q
1r
0s
1t
0u
1v
0w
0x
0y
1z
1{
1|
0}
1~
1!!
1"!
0#!
0$!
1%!
0&!
0'!
0(!
0)!
0*!
0+!
0,!
1-!
1.!
0/!
00!
01!
02!
13!
14!
15!
16!
17!
18!
09!
1:!
0;!
0<!
1=!
1&
1'
1(
1)
1*
1+
0,
0-
1A
1B
1C
1D
1E
1F
0G
0H
0J
0K
1L
1M
0.
0/
10
11
$end
#2205
0(
0C
0d
0e
0r
1w
0!!
06!
0z
0{
0S
0L
00
#60417
0*
1,
1G
0E
0f
1c
1e
0w
0|
1j
1/!
1<!
0=!
11!
0~
0.!
1z
1{
0/!
1$!
12!
0X
1'!
01!
0P
02!
0$
1U
1Y
1S
1J
1Q
1L
1T
10
1.
1#
1K
0U
0Y
1/
0J
0Q
0.
0#
#108927
0&
0A
0h
0j
10!
03!
05!
07!
08!
11!
12!
0:!
0<!
1=!
0V
1U
1Y
0N
1J
1Q
0"
1.
1#
1X
1P
1$
#110000
1(
0)
0D
1C
1d
0^
0a
0n
0e
1w
1}
0"!
1,!
1~
1.!
0z
0k
0o
0p
0{
1/!
13!
0$!
0'!
18!
01!
0q
02!
1:!
0S
1;!
1<!
0L
0R
0T
0=!
00
0M
0K
1V
0U
0Y
01
0/
1N
0J
0Q
1W
1"
0.
0#
0X
1O
0P
1%
0$
#177282
1*
0+
0F
1E
1f
0g
0~
1"!
1j
0/!
03!
15!
17!
08!
11!
1k
1$!
1'!
12!
0:!
0;!
0V
1U
1Y
1T
0N
1J
1Q
1K
0W
0"
1/
1.
1#
0O
0%
#230000
0(
1&
0C
1A
1h
0d
1e
1r
0w
0}
0"!
0%!
0,!
00!
13!
18!
01!
0-!
1~
1z
1{
0$!
02!
1:!
0<!
0'!
1=!
1V
0U
0Y
1S
1N
0J
0Q
1L
0T
1"
10
0.
0#
1X
0K
1P
0/
1$
#280000
0,
0G
0c
0e
1m
1w
1|
0~
0.!
0z
1+!
10!
0{
1/!
1$!
1'!
1;!
0;!
0S
0L
1W
1T
00
1O
1K
0W
1%
1/
0O
0%
#352800
1,
0*
1-
1H
1G
0E
0f
1c
1`
1a
1l
0v
1e
0m
0w
0|
1n
0/!
03!
05!
1<!
0=!
07!
08!
11!
1o
1~
1.!
1z
0+!
13!
1w
0z
00!
1{
1/!
0$!
1p
12!
0:!
18!
0X
1:!
1q
0'!
0{
0P
0$
0V
1U
1Y
1S
0N
1J
1Q
1L
0S
0T
1R
1V
0"
10
1.
1#
0L
0K
1M
1N
11
00
0/
1"
#386722
1)
0'
1D
0B
0i
1^
0a
0n
0r
1u
1x
0~
0.!
0/!
1$!
1"!
1,!
0w
0o
0p
1z
1'!
01!
02!
1{
0q
1T
1K
0R
1S
0U
0Y
1/
0M
1L
0J
0Q
01
10
0.
0#
#439677
0,
0-
1+
0H
0G
1F
1g
0c
0`
1a
0l
1v
0x
0e
1w
1|
1}
0,!
1~
1-!
15!
0$!
0-!
1.!
0z
0w
0}
1n
0u
1w
1o
0~
0.!
1z
0{
1/!
05!
0'!
17!
07!
11!
1;!
1{
0/!
1$!
1p
0z
0{
1q
1'!
01!
0;!
12!
0T
0S
02!
0K
0L
1S
1W
00
0/
1L
1O
1U
1Y
0W
1T
1R
0S
10
1%
1J
1Q
0O
1K
1M
0L
0U
0Y
11
00
1/
1.
1#
0%
0J
0Q
0.
0#
